Geospatial Analysis for Public Good: A Data-driven Perspective on Road Traffic Accidents in the Bangkok Metropolitan Region – Geospatial Analytics w/ Derek
…
The final analyses we will perform is on the distribution of the fatal accidents along the road network. For this, we will also focus only on one year– 2022, as we recognize a shift in the hotspots over the years, at least across provinces

To facilitate the analysis, we create a subset of the accident dataset to only consider fatal accidents and the latest year.

bmr_fatacc_2022 <- filter(bmracc, (number_of_fatalities > 0) & (Year == 2022) )

bmr_fatacc_2022

Simple feature collection with 159 features and 21 fields
Geometry type: POINT
Dimension:     XY
Bounding box:  xmin: 610274.5 ymin: 1489002 xmax: 706582.6 ymax: 1570658
Projected CRS: WGS 84 / UTM zone 47N
# A tibble: 159 × 22
   acc_code incident_datetime   report_datetime     province_th  province_en  
 *    <dbl> <dttm>              <dttm>              <chr>        <chr>        
 1  5484851 2022-01-01 02:30:00 2022-01-02 02:43:00 สมุทรปราการ   Samut Prakan 
 2  5493686 2022-01-01 05:30:00 2022-01-03 10:23:00 นนทบุรี        Nonthaburi   
 3  5493725 2022-01-01 14:00:00 2022-01-03 10:28:00 นครปฐม       Nakhon Pathom
 4  6950193 2022-01-03 21:00:00 2022-09-21 10:53:00 นนทบุรี        Nonthaburi   
 5  5837858 2022-01-03 23:34:00 2022-03-03 14:19:00 กรุงเทพมหานคร Bangkok      
 6  6567040 2022-01-04 21:19:00 2022-01-05 11:27:00 สมุทรปราการ   Samut Prakan 
 7  6567055 2022-01-09 22:00:00 2022-01-11 10:56:00 ปทุมธานี       Pathum Thani 
 8  5861456 2022-01-11 18:00:00 2022-03-07 11:28:00 สมุทรปราการ   Samut Prakan 
 9  5579080 2022-01-15 00:10:00 2022-01-15 09:11:00 กรุงเทพมหานคร Bangkok      
10  5843213 2022-01-16 11:30:00 2022-03-04 10:48:00 ปทุมธานี       Pathum Thani 
# ℹ 149 more rows
# ℹ 17 more variables: agency <chr>, route <chr>, vehicle_type <chr>,
#   presumed_cause <chr>, accident_type <chr>,
#   number_of_vehicles_involved <dbl>, number_of_fatalities <dbl>,
#   number_of_injuries <dbl>, weather_condition <chr>, road_description <chr>,
#   slope_description <chr>, geometry <POINT [m]>, Year <dbl>, MonthNum <dbl>,
#   Month <ord>, DayOfWeek <ord>, fatal <lgl>
…
