Choropleth Mapping with R – Geospatial Analytics w/ Derek
…
Rows: 738492 Columns: 7
── Column specification ────────────────────────────────────────────────────────
Delimiter: ","
chr (5): PA, SZ, AG, Sex, FA
dbl (2): Pop, Time

ℹ Use `spec()` to retrieve the full column specification for this data.
ℹ Specify the column types or set `show_col_types = FALSE` to quiet this message.

We can quickly examine the data by calling the dataframe name. This shows that popdata consists of 738K records or rows with 7 attributes or columns.

popdata

# A tibble: 738,492 × 7
   PA         SZ                     AG     Sex     FA              Pop  Time
   <chr>      <chr>                  <chr>  <chr>   <chr>         <dbl> <dbl>
 1 Ang Mo Kio Ang Mo Kio Town Centre 0_to_4 Males   <= 60             0  2011
 2 Ang Mo Kio Ang Mo Kio Town Centre 0_to_4 Males   >60 to 80        10  2011
 3 Ang Mo Kio Ang Mo Kio Town Centre 0_to_4 Males   >80 to 100       30  2011
 4 Ang Mo Kio Ang Mo Kio Town Centre 0_to_4 Males   >100 to 120      80  2011
 5 Ang Mo Kio Ang Mo Kio Town Centre 0_to_4 Males   >120             20  2011
 6 Ang Mo Kio Ang Mo Kio Town Centre 0_to_4 Males   Not Available     0  2011
 7 Ang Mo Kio Ang Mo Kio Town Centre 0_to_4 Females <= 60             0  2011
 8 Ang Mo Kio Ang Mo Kio Town Centre 0_to_4 Females >60 to 80        10  2011
 9 Ang Mo Kio Ang Mo Kio Town Centre 0_to_4 Females >80 to 100       40  2011
10 Ang Mo Kio Ang Mo Kio Town Centre 0_to_4 Females >100 to 120      90  2011
# ℹ 738,482 more rows
…
`summarise()` has grouped output by 'PA', 'SZ'. You can override using the
`.groups` argument.

We can check that the transformation has been executed properly by displaying the new dataframe.

popdata2020

# A tibble: 332 × 7
   PA         SZ                   YOUNG `ECONOMY ACTIVE`  AGED TOTAL DEPENDENCY
   <chr>      <chr>                <dbl>            <dbl> <dbl> <dbl>      <dbl>
 1 Ang Mo Kio Ang Mo Kio Town Cen…  1440             2640   770  4850      0.837
 2 Ang Mo Kio Cheng San             6660            15380  6080 28120      0.828
 3 Ang Mo Kio Chong Boon            6150            13970  6450 26570      0.902
 4 Ang Mo Kio Kebun Bahru           5500            12040  5080 22620      0.879
 5 Ang Mo Kio Sembawang Hills       2130             3390  1270  6790      1.00 
 6 Ang Mo Kio Shangri-La            3970             8430  3540 15940      0.891
 7 Ang Mo Kio Tagore                2220             4160  1520  7900      0.899
 8 Ang Mo Kio Townsville            4720            11430  5050 21200      0.855
 9 Ang Mo Kio Yio Chu Kang             0                0     0     0    NaN    
10 Ang Mo Kio Yio Chu Kang East     1190             2230   740  4160      0.865
# ℹ 322 more rows
…
