Discovering Impact of COVID-19 on Thai Tourism Economy – Geospatial Analytics w/ Derek
…
Rows: 30800 Columns: 7
── Column specification ────────────────────────────────────────────────────────
Delimiter: ","
chr  (5): province_thai, province_eng, region_thai, region_eng, variable
dbl  (1): value
date (1): date

ℹ Use `spec()` to retrieve the full column specification for this data.
ℹ Specify the column types or set `show_col_types = FALSE` to quiet this message.

We can check the contents by using the code chunk below.

tourism

# A tibble: 30,800 × 7
   date       province_thai province_eng   region_thai region_eng variable value
   <date>     <chr>         <chr>          <chr>       <chr>      <chr>    <dbl>
 1 2019-01-01 กรุงเทพมหานคร  Bangkok        ภาคกลาง     central    occupan…  93.4
 2 2019-01-01 ลพบุรี          Lopburi        ภาคกลาง     central    occupan…  61.3
 3 2019-01-01 พระนครศรีอยุธยา Phra Nakhon S… ภาคกลาง     central    occupan…  73.4
 4 2019-01-01 สระบุรี         Saraburi       ภาคกลาง     central    occupan…  67.3
 5 2019-01-01 ชัยนาท         Chainat        ภาคกลาง     central    occupan…  79.3
 6 2019-01-01 นครปฐม        Nakhon Pathom  ภาคกลาง     central    occupan…  71.7
 7 2019-01-01 สิงห์บุรี         Sing Buri      ภาคกลาง     central    occupan…  64.6
 8 2019-01-01 อ่างทอง        Ang Thong      ภาคกลาง     central    occupan…  71.2
 9 2019-01-01 นนทบุรี         Nonthaburi     ภาคกลาง     central    occupan…  75.1
10 2019-01-01 ปทุมธานี        Pathum Thani   ภาคกลาง     central    occupan…  60.8
# ℹ 30,790 more rows
…
